%YAML 1.1
%TAG !u! tag:unity3d.com,2011:
--- !u!114 &11400000
MonoBehaviour:
  m_ObjectHideFlags: 0
  m_CorrespondingSourceObject: {fileID: 0}
  m_PrefabInternal: {fileID: 0}
  m_GameObject: {fileID: 0}
  m_Enabled: 1
  m_EditorHideFlags: 0
  m_Script: {fileID: 11500000, guid: e21ef7bc83c189e4d9b301de69b266b0, type: 3}
  m_Name: LevelData
  m_EditorClassIdentifier: 
  stepSize: 25
  gridX: 5
  gridY: 5
  MapArray:
  - gPos: {x: 0, y: 0}
    wPos: {x: 0, y: 0, z: 0}
    roads: 00000000
    parentPos: {x: 0, y: 0}
    gCost: 0
    hCost: 0
  - gPos: {x: 0, y: 1}
    wPos: {x: 0, y: 0, z: 25}
    roads: 01010000
    parentPos: {x: 0, y: 0}
    gCost: 0
    hCost: 0
  - gPos: {x: 0, y: 2}
    wPos: {x: 0, y: 0, z: 50}
    roads: 01010100
    parentPos: {x: 0, y: 0}
    gCost: 0
    hCost: 0
  - gPos: {x: 0, y: 3}
    wPos: {x: 0, y: 0, z: 75}
    roads: 01010100
    parentPos: {x: 0, y: 0}
    gCost: 0
    hCost: 0
  - gPos: {x: 0, y: 4}
    wPos: {x: 0, y: 0, z: 100}
    roads: 00000100
    parentPos: {x: 0, y: 0}
    gCost: 0
    hCost: 0
  - gPos: {x: 1, y: 0}
    wPos: {x: 25, y: 0, z: 0}
    roads: 00000000
    parentPos: {x: 0, y: 0}
    gCost: 0
    hCost: 0
  - gPos: {x: 1, y: 1}
    wPos: {x: 25, y: 0, z: 25}
    roads: 01010001
    parentPos: {x: 0, y: 0}
    gCost: 0
    hCost: 0
  - gPos: {x: 1, y: 2}
    wPos: {x: 25, y: 0, z: 50}
    roads: 01010101
    parentPos: {x: 0, y: 0}
    gCost: 0
    hCost: 0
  - gPos: {x: 1, y: 3}
    wPos: {x: 25, y: 0, z: 75}
    roads: 01010101
    parentPos: {x: 0, y: 0}
    gCost: 0
    hCost: 0
  - gPos: {x: 1, y: 4}
    wPos: {x: 25, y: 0, z: 100}
    roads: 00010100
    parentPos: {x: 0, y: 0}
    gCost: 0
    hCost: 0
  - gPos: {x: 2, y: 0}
    wPos: {x: 50, y: 0, z: 0}
    roads: 01010000
    parentPos: {x: 0, y: 0}
    gCost: 0
    hCost: 0
  - gPos: {x: 2, y: 1}
    wPos: {x: 50, y: 0, z: 25}
    roads: 01010101
    parentPos: {x: 0, y: 0}
    gCost: 0
    hCost: 0
  - gPos: {x: 2, y: 2}
    wPos: {x: 50, y: 0, z: 50}
    roads: 01010101
    parentPos: {x: 0, y: 0}
    gCost: 0
    hCost: 0
  - gPos: {x: 2, y: 3}
    wPos: {x: 50, y: 0, z: 75}
    roads: 01010101
    parentPos: {x: 0, y: 0}
    gCost: 0
    hCost: 0
  - gPos: {x: 2, y: 4}
    wPos: {x: 50, y: 0, z: 100}
    roads: 00010101
    parentPos: {x: 0, y: 0}
    gCost: 0
    hCost: 0
  - gPos: {x: 3, y: 0}
    wPos: {x: 75, y: 0, z: 0}
    roads: 01000001
    parentPos: {x: 0, y: 0}
    gCost: 0
    hCost: 0
  - gPos: {x: 3, y: 1}
    wPos: {x: 75, y: 0, z: 25}
    roads: 01010101
    parentPos: {x: 0, y: 0}
    gCost: 0
    hCost: 0
  - gPos: {x: 3, y: 2}
    wPos: {x: 75, y: 0, z: 50}
    roads: 01000101
    parentPos: {x: 0, y: 0}
    gCost: 0
    hCost: 0
  - gPos: {x: 3, y: 3}
    wPos: {x: 75, y: 0, z: 75}
    roads: 01010101
    parentPos: {x: 0, y: 0}
    gCost: 0
    hCost: 0
  - gPos: {x: 3, y: 4}
    wPos: {x: 75, y: 0, z: 100}
    roads: 00000101
    parentPos: {x: 0, y: 0}
    gCost: 0
    hCost: 0
  - gPos: {x: 4, y: 0}
    wPos: {x: 100, y: 0, z: 0}
    roads: 00000000
    parentPos: {x: 0, y: 0}
    gCost: 0
    hCost: 0
  - gPos: {x: 4, y: 1}
    wPos: {x: 100, y: 0, z: 25}
    roads: 01000001
    parentPos: {x: 0, y: 0}
    gCost: 0
    hCost: 0
  - gPos: {x: 4, y: 2}
    wPos: {x: 100, y: 0, z: 50}
    roads: 01000100
    parentPos: {x: 0, y: 0}
    gCost: 0
    hCost: 0
  - gPos: {x: 4, y: 3}
    wPos: {x: 100, y: 0, z: 75}
    roads: 00000101
    parentPos: {x: 0, y: 0}
    gCost: 0
    hCost: 0
  - gPos: {x: 4, y: 4}
    wPos: {x: 100, y: 0, z: 100}
    roads: 00000000
    parentPos: {x: 0, y: 0}
    gCost: 0
    hCost: 0
